x1=5.4	x2=3 x3=4.5	x4=1.5	==> y= 010
x1=7.3	x2=2.9 x3=6.3	x4=1.8	==> y= 001
x1=5.1	x2=3.5 x3=1.4	x4=0.2	==> y= 100
x1=5	x2=3.6 x3=1.4	x4=0.2	==> y= 100
x1=6.7	x2=3 x3=5	x4=1.7	==> y= 001
x1=6.9	x2=3.1 x3=4.9	x4=1.5	==> y= 001
x1=5.7	x2=2.8 x3=4.1	x4=1.3	==> y= 010
x1=5.6	x2=3 x3=4.1	x4=1.3	==> y= 010
x1=5.1	x2=3.8 x3=1.6	x4=0.2	==> y= 100
x1=4.7	x2=3.2 x3=1.6	x4=0.2	==> y= 100
x1=5.1	x2=3.8 x3=1.9	x4=0.4	==> y= 100
x1=5.5	x2=2.6 x3=4.4	x4=1.2	==> y= 010
x1=6.6	x2=2.9 x3=4.6	x4=1.3	==> y= 010
x1=5	x2=3.5 x3=1.3	x4=0.3	==> y= 100
x1=5	x2=3 x3=1.6	x4=0.2	==> y= 100
x1=6.8	x2=2.8 x3=4.8	x4=1.4	==> y= 010
x1=7.6	x2=3 x3=6.6	x4=2.1	==> y= 001
x1=5.5	x2=2.4 x3=3.7	x4=1	==> y= 010
x1=4.8	x2=3 x3=1.4	x4=0.1	==> y= 100
x1=6.2	x2=2.2 x3=4.5	x4=1.5	==> y= 010
x1=5.6	x2=2.9 x3=3.6	x4=1.3	==> y= 010
x1=6	x2=2.2 x3=5	x4=1.5	==> y= 001
x1=6	x2=2.2 x3=4	x4=1	==> y= 010
x1=4.6	x2=3.2 x3=1.4	x4=0.2	==> y= 100
x1=6.7	x2=3.3 x3=5.7	x4=2.5	==> y= 001
x1=5.5	x2=2.5 x3=4	x4=1.3	==> y= 010
x1=6.7	x2=2.5 x3=5.8	x4=1.8	==> y= 001
x1=6.3	x2=2.5 x3=5	x4=1.9	==> y= 001
x1=5.8	x2=2.7 x3=4.1	x4=1	==> y= 010
x1=5.8	x2=4 x3=1.2	x4=0.2	==> y= 100
